An introduction to tidyverse
…
More on lists can be found in the respective chapter of R for data science here.

3.5 Applying a function to elements of a data structure

R encourages the use of functions for programming. Instead of e.g.looping through a vector or data frame, you can use specialized functions that apply another function to each element of your data. These kinds of functions are called apply functions. Here, we will use the map family of functions from the purrr package instead of the base R functions. An apply / map call applies a function to a vector or list and returns the result in another vector/list. Thus, each step consists of mapping a list value to a result.

We will introduce the map functions by looking at a typical data set in a tabular format, where the rows represent the samples and the columns the variables measured. The data set bodyfat contains various body measures for 252 men. We turn it into a tibble by using the function as_tibble().

Lets inspect it a bit. The first thing we notice is that tibbles prints only the first 10 rows by default. Tibbles are designed so that you dont accidentally overwhelm your console when you print large data frames. Additionally, we get a nice summary of the variables available in our data set.

load("bodyfat.rda")
bodyfat <- as_tibble(bodyfat)
bodyfat

   # A tibble: 252 x 15
      density percent.fat   age weight height neck.circum chest.circum
        <dbl>       <dbl> <int>  <dbl>  <dbl>       <dbl>        <dbl>
    1    1.07        12.3    23   154.   67.8        36.2         93.1
    2    1.09         6.1    22   173.   72.2        38.5         93.6
    3    1.04        25.3    22   154    66.2        34           95.8
    4    1.08        10.4    26   185.   72.2        37.4        102. 
    5    1.03        28.7    24   184.   71.2        34.4         97.3
    6    1.05        20.9    24   210.   74.8        39          104. 
    7    1.05        19.2    26   181    69.8        36.4        105. 
    8    1.07        12.4    25   176    72.5        37.8         99.6
    9    1.09         4.1    25   191    74          38.1        101. 
   10    1.07        11.7    23   198.   73.5        42.1         99.6
   # ... with 242 more rows, and 8 more variables: abdomen.circum <dbl>,
   #   hip.circum <dbl>, thigh.circum <dbl>, knee.circum <dbl>,
   #   ankle.circum <dbl>, bicep.circum <dbl>, forearm.circum <dbl>,
   #   wrist.circum <dbl>
…
3.6 Computing variables from existing ones and predicate functions

Often, we want to use variables stored in our data set to compute derived quanities. For example, we might be interest in the weight in kilograms instead of pounds and the hight in meters instead of inches. The function mutate allows us to do this.

pb_to_kg <- 1/2.2046
inch_to_m <- 0.0254

bodyfat <- mutate(bodyfat, height_m = height * inch_to_m,  
                           weight_kg = weight * pb_to_kg)

select(bodyfat, height,  height_m, weight, weight_kg)

   # A tibble: 252 x 4
      height height_m weight weight_kg
       <dbl>    <dbl>  <dbl>     <dbl>
    1   67.8     1.72   154.      70.0
    2   72.2     1.84   173.      78.6
    3   66.2     1.68   154       69.9
    4   72.2     1.84   185.      83.8
    5   71.2     1.81   184.      83.6
    6   74.8     1.90   210.      95.4
    7   69.8     1.77   181       82.1
    8   72.5     1.84   176       79.8
    9   74       1.88   191       86.6
   10   73.5     1.87   198.      89.9
   # ... with 242 more rows
…
